{
	"info": {
		"_postman_id": "1d592a25-128f-4a7c-9d74-f9a6d373174d",
		"name": "S33-Activity",
		"schema": "https://schema.getpostman.com/json/collection/v2.1.0/collection.json",
		"_exporter_id": "23154534"
	},
	"item": [
		{
			"name": "HTTP method",
			"request": {
				"method": "GET",
				"header": [],
				"url": {
					"raw": "https://jsonplaceholder.typicode.com/todos",
					"protocol": "https",
					"host": [
						"jsonplaceholder",
						"typicode",
						"com"
					],
					"path": [
						"todos"
					]
				}
			},
			"response": []
		},
		{
			"name": "Create a To Do List Item",
			"request": {
				"method": "POST",
				"header": [],
				"url": {
					"raw": "https://jsonplaceholder.typicode.com/todos/1 ",
					"protocol": "https",
					"host": [
						"jsonplaceholder",
						"typicode",
						"com"
					],
					"path": [
						"todos",
						"1 "
					]
				}
			},
			"response": []
		},
		{
			"name": "update to do list item",
			"request": {
				"method": "PUT",
				"header": [],
				"body": {
					"mode": "raw",
					"raw": "  {\r\n\t\t\t\"title\": 'Updated To-Do-List Item', \r\n\t\t\t\"description\":\" To update the my to do list with a different data structure\",\r\n\t\t\t\"status\": \"Pending\",\r\n\t\t\t\"dateCompleted\": \"Pending\", \r\n\t\t\t\"userId\": 1,\r\n}",
					"options": {
						"raw": {
							"language": "json"
						}
					}
				},
				"url": {
					"raw": "https://jsonplaceholder.typicode.com/todos/1 ",
					"protocol": "https",
					"host": [
						"jsonplaceholder",
						"typicode",
						"com"
					],
					"path": [
						"todos",
						"1 "
					]
				}
			},
			"response": []
		},
		{
			"name": "create a to do list item",
			"request": {
				"method": "PATCH",
				"header": [],
				"url": {
					"raw": "https://jsonplaceholder.typicode.com/todos/1",
					"protocol": "https",
					"host": [
						"jsonplaceholder",
						"typicode",
						"com"
					],
					"path": [
						"todos",
						"1"
					]
				}
			},
			"response": []
		},
		{
			"name": "delete to do list",
			"request": {
				"method": "DELETE",
				"header": [],
				"url": {
					"raw": "https://jsonplaceholder.typicode.com/todos/1",
					"protocol": "https",
					"host": [
						"jsonplaceholder",
						"typicode",
						"com"
					],
					"path": [
						"todos",
						"1"
					]
				}
			},
			"response": []
		}
	]
}